<?xml version="1.0" encoding="UTF-8" standalone="no"?>
<!-- Created with Inkscape (http://www.inkscape.org/) -->

<svg
   xmlns:dc="http://purl.org/dc/elements/1.1/"
   xmlns:cc="http://creativecommons.org/ns#"
   xmlns:rdf="http://www.w3.org/1999/02/22-rdf-syntax-ns#"
   xmlns:svg="http://www.w3.org/2000/svg"
   xmlns="http://www.w3.org/2000/svg"
   xmlns:sodipodi="http://sodipodi.sourceforge.net/DTD/sodipodi-0.dtd"
   xmlns:inkscape="http://www.inkscape.org/namespaces/inkscape"
   width="331.88977"
   height="848.84283"
   viewBox="0 0 87.8125 224.58966"
   version="1.1"
   id="svg8"
   sodipodi:docname="drop_spindle_v0.2.svg"
   inkscape:version="0.92.2 5c3e80d, 2017-08-06">
  <defs
     id="defs2" />
  <sodipodi:namedview
     id="base"
     pagecolor="#ffffff"
     bordercolor="#666666"
     borderopacity="1.0"
     inkscape:pageopacity="0.0"
     inkscape:pageshadow="2"
     inkscape:zoom="1.5"
     inkscape:cx="188.15917"
     inkscape:cy="720.47341"
     inkscape:document-units="mm"
     inkscape:current-layer="layer3"
     showgrid="true"
     showguides="true"
     inkscape:snap-intersection-paths="false"
     inkscape:window-width="1386"
     inkscape:window-height="855"
     inkscape:window-x="54"
     inkscape:window-y="1"
     inkscape:window-maximized="1"
     inkscape:measure-start="0.944886,752.944"
     inkscape:measure-end="0.944886,848.944"
     fit-margin-top="0"
     fit-margin-left="0"
     fit-margin-right="0"
     fit-margin-bottom="0"
     units="px">
    <inkscape:grid
       type="xygrid"
       id="grid850"
       snapvisiblegridlinesonly="false"
       originx="-63.249999"
       originy="-22.769002" />
  </sodipodi:namedview>
  <metadata
     id="metadata5">
    <rdf:RDF>
      <cc:Work
         rdf:about="">
        <dc:format>image/svg+xml</dc:format>
        <dc:type
           rdf:resource="http://purl.org/dc/dcmitype/StillImage" />
        <dc:title />
      </cc:Work>
    </rdf:RDF>
  </metadata>
  <g
     inkscape:label="Layer 1"
     inkscape:groupmode="layer"
     id="layer1"
     style="display:inline"
     transform="translate(-63.25,-49.641331)" />
  <g
     inkscape:groupmode="layer"
     id="layer2"
     inkscape:label="Layer 2"
     style="display:inline"
     transform="translate(-63.25,-49.641331)">
    <path
       inkscape:connector-curvature="0"
       id="path1043"
       d="m 150.8125,74.75 c 0,3.96875 0,11.22977 0,13.229175 2e-5,7.30627 -19.54556,13.229175 -43.65625,13.229175 -24.110693,0 -43.656266,-5.922905 -43.65625,-13.229175 0,-1.948993 0,-10.583342 0,-13.229175"
       style="fill:#ffffff;fill-opacity:1;stroke:#000000;stroke-width:0.5;stroke-linejoin:miter;stroke-miterlimit:3.0999999;stroke-dasharray:none;stroke-dashoffset:0;stroke-opacity:1"
       sodipodi:nodetypes="ccscc" />
    <path
       inkscape:connector-curvature="0"
       id="path4767"
       d="m 112.44202,168.85124 c -0.003,48.80615 -0.005,103.13367 -0.005,103.54276 -1e-5,0.87647 -2.36461,1.587 -5.2815,1.587 -2.9169,0 -5.28151,-0.71053 -5.28151,-1.587 0,-0.24298 -0.0608,-54.89102 -0.12507,-103.84527"
       style="fill:none;fill-opacity:1;stroke:#000000;stroke-width:0.49999395;stroke-linejoin:miter;stroke-miterlimit:3.0999999;stroke-dasharray:none;stroke-dashoffset:0;stroke-opacity:1"
       sodipodi:nodetypes="ccscc" />
    <path
       style="opacity:0.97000002;fill:#c300e5;fill-opacity:1;stroke:#000000;stroke-width:0.265;stroke-linecap:butt;stroke-linejoin:miter;stroke-opacity:1;stroke-miterlimit:4;stroke-dasharray:none"
       d="m 79.375,98.297917 c 1.058333,13.229163 0.79375,17.727083 2.910417,31.220833 2.116667,16.66875 16.404169,26.9875 19.579163,40.21667 0,0 3.3061,1.62827 5.29167,1.4993 1.78105,-0.11568 5.29167,-1.23472 5.29167,-1.23472 3.175,-13.22917 17.72392,-24.34167 19.84059,-41.01042 2.11667,-13.49375 1.59066,-17.46251 2.64899,-30.69167 0,0 -4.7625,1.322917 -10.7387,2.05181 -5.74323,0.70048 -13.0738,1.12319 -17.30713,1.1232 -3.97756,1e-5 -9.525002,-0.26459 -14.753978,-0.88768 C 85.339911,99.775205 79.375,98.297917 79.375,98.297917 Z"
       id="path4773"
       inkscape:connector-curvature="0"
       sodipodi:nodetypes="cccscccsssc" />
  </g>
  <g
     inkscape:groupmode="layer"
     id="layer3"
     inkscape:label="Layer 3"
     style="display:inline;opacity:1">
    <path
       transform="translate(-63.25,-49.641331)"
       style="display:inline;fill:#ffffff;fill-opacity:1;stroke:#000000;stroke-width:0.49999383;stroke-linejoin:miter;stroke-miterlimit:3.0999999;stroke-dasharray:none;stroke-dashoffset:0;stroke-opacity:1"
       d="m 112.46672,61.618072 c 21.60549,0.794052 38.3447,6.370701 38.3447,13.132094 0,7.306176 -19.54533,13.229003 -43.65571,13.229003 -24.110384,0 -43.655713,-5.922826 -43.655713,-13.229003 0,-6.749371 16.679739,-12.318209 38.229513,-13.127813"
       id="path986"
       inkscape:connector-curvature="0"
       sodipodi:nodetypes="csssc" />
    <path
       transform="translate(-63.25,-49.641331)"
       style="display:inline;fill:#ffffff;fill-opacity:1;stroke:#000000;stroke-width:0.5;stroke-linejoin:miter;stroke-miterlimit:3.0999999;stroke-dasharray:none;stroke-dashoffset:0;stroke-opacity:1"
       d="m 112.44792,59.139583 c 0,3.704167 -0.0107,14.734108 -0.0107,15.610584 0,0.876475 -2.36461,1.586999 -5.2815,1.587001 -2.9169,0 -5.28151,-0.710524 -5.28151,-1.587001 0,-0.447147 -0.01,-7.937667 -0.01,-15.610584"
       id="path1049"
       inkscape:connector-curvature="0"
       sodipodi:nodetypes="ccscc" />
    <path
       transform="translate(-63.25,-49.641331)"
       inkscape:connector-curvature="0"
       id="path4765"
       d="m 112.43721,58.875166 a 5.2815096,1.5870019 0 0 1 -5.2815,1.587001 5.2815096,1.5870019 0 0 1 -5.28151,-1.587001 5.2815096,1.5870019 0 0 1 5.28151,-1.587002 5.2815096,1.5870019 0 0 1 5.2815,1.587002 z"
       style="display:inline;fill:#ffffff;fill-opacity:1;stroke:#000000;stroke-width:0.49999395;stroke-linejoin:miter;stroke-miterlimit:3.0999999;stroke-dasharray:none;stroke-dashoffset:0;stroke-opacity:1" />
  </g>
</svg>
