<?xml version="1.0" encoding="UTF-8" standalone="no"?>
<!-- Created with Inkscape (http://www.inkscape.org/) -->

<svg
   xmlns:dc="http://purl.org/dc/elements/1.1/"
   xmlns:cc="http://creativecommons.org/ns#"
   xmlns:rdf="http://www.w3.org/1999/02/22-rdf-syntax-ns#"
   xmlns:svg="http://www.w3.org/2000/svg"
   xmlns="http://www.w3.org/2000/svg"
   xmlns:sodipodi="http://sodipodi.sourceforge.net/DTD/sodipodi-0.dtd"
   xmlns:inkscape="http://www.inkscape.org/namespaces/inkscape"
   version="1.1"
   id="svg923"
   width="547.2207"
   height="181.78728"
   viewBox="0 0 547.2207 181.78728"
   sodipodi:docname="skein_from_scanned_drawing_v0.2.svg"
   inkscape:version="0.92.2 5c3e80d, 2017-08-06">
  <metadata
     id="metadata929">
    <rdf:RDF>
      <cc:Work
         rdf:about="">
        <dc:format>image/svg+xml</dc:format>
        <dc:type
           rdf:resource="http://purl.org/dc/dcmitype/StillImage" />
        <dc:title></dc:title>
      </cc:Work>
    </rdf:RDF>
  </metadata>
  <defs
     id="defs927" />
  <sodipodi:namedview
     pagecolor="#ffffff"
     bordercolor="#666666"
     borderopacity="1"
     objecttolerance="10"
     gridtolerance="10"
     guidetolerance="10"
     inkscape:pageopacity="0"
     inkscape:pageshadow="2"
     inkscape:window-width="1287"
     inkscape:window-height="732"
     id="namedview925"
     showgrid="false"
     inkscape:zoom="0.5"
     inkscape:cx="613.61034"
     inkscape:cy="-245.10637"
     inkscape:window-x="83"
     inkscape:window-y="69"
     inkscape:window-maximized="0"
     inkscape:current-layer="svg923"
     fit-margin-top="0"
     fit-margin-left="0"
     fit-margin-right="0"
     fit-margin-bottom="0" />
  <path
     style="fill:#000000;stroke-width:0.56654829"
     d="m 0.40962854,86.861718 c 2.21437996,-7.90202 6.76349996,-17.03092 8.11236996,-21.49774 3.5829505,-7.7756 4.6755805,-11.02567 10.6642755,-20.21211 7.98409,-4.79832 11.39262,-13.84024 22.16559,-16.35389 8.37426,-4.9975 15.7449,-8.92681 28.7288,-10.2369 11.10636,-1.2014 14.47769,-0.75507 28.1074,0.0387 18.592256,3.05611 38.388576,5.65995 51.817466,16.61257 6.97502,-7.00357 13.18469,-11.42803 31.23956,-16.74192 10.74355,-0.009 18.79969,-0.38644 29.05549,0.77561 12.83878,2.96249 25.07399,4.48766 32.49802,12.15699 3.82271,-7.13626 21.70662,-13.44423 29.99413,-14.79825 6.62059,-1.788 25.26896,-6.22699 36.88272,-3.59615 3.21569,-0.28711 26.56789,3.68009 36.11713,14.49605 2.98969,3.38628 -14.18437,24.85635 -10.18504,15.72141 -9.34692,-6.46142 -15.13613,-11.27531 -26.75837,-14.44554 -15.33972,-2.29031 -22.71861,-1.73493 -38.55426,3.41337 -11.2339,2.42864 -16.70047,8.06181 -22.8813,11.98273 -8.82001,9.20439 -11.8534,24.0381 -18.08845,34.90662 -3.26097,16.39664 -9.74116,32.163092 -13.92308,48.098122 -0.22052,7.0582 -7.5627,15.64979 -7.487,27.3098 4.47629,3.8332 12.44018,5.65726 19.33874,8.65177 7.99496,3.02776 14.09148,3.27759 21.54792,3.97359 9.17462,1.04451 14.03118,-1.01635 20.30967,-2.31377 10.51292,-6.52675 20.81566,-8.12009 30.66954,-22.29974 11.0706,-12.93896 12.54596,-28.62477 17.52051,-47.433002 2.46415,-17.70179 3.62944,-28.3112 7.24622,-41.3682 5.94281,-9.79743 10.64359,-26.8976 22.32016,-29.42297 8.53465,-8.05228 21.57625,-8.94517 29.78565,-10.7797 14.2334,-3.1225 33.50429,-3.9765404 45.66059,-2.02592 6.70408,0.95346 15.66597,1.43682 21.3307,7.1722 14.36501,-12.9040204 34.04603,-20.4797504 53.7,-18.26206043 10.26197,1.45923003 31.16194,7.45407003 38.84624,22.05402043 3.91908,6.81795 8.93255,16.73793 9.83599,25.09806 1.70984,12.44524 1.58218,31.1372 -0.37913,45.0209 -2.81632,15.564882 -8.87691,27.559882 -12.49056,35.921082 -3.91812,3.10173 -6.90169,7.87076 -13.1601,13.62298 -6.66831,5.23482 -11.34425,8.10519 -15.60733,10.20138 -5.6903,3.73359 -10.52453,7.45196 -20.14341,10.75257 -9.96806,3.72679 -19.29847,-0.0555 -29.17061,1.72557 -16.64124,0.49384 -28.3711,-9.52624 -38.70983,-12.60633 -6.15182,6.71569 -14.39208,9.22646 -26.21967,15.88436 -25.67663,7.38211 -40.9876,4.21602 -57.12488,0.35799 -9.36312,-3.41197 -16.524,-3.90939 -23.50272,-9.18327 -8.95291,10.10525 -19.08659,14.09746 -35.37223,20.48862 -11.51315,4.27333 -24.75779,0.76562 -41.1092,-0.3204 -10.87569,-4.24218 -28.33782,-5.90204 -32.91547,-14.5847 -7.58553,12.84478 -22.78863,8.57178 -35.41519,11.7217 -12.85948,-0.69753 -19.85714,0.24832 -31.62854,-0.51116 -12.89685,-2.21144 -18.83727,-4.40325 -27.75855,-11.29112 -1.86995,6.79502 -18.149096,11.51186 -25.519526,11.99014 -8.74933,0.56775 -19.21718,-1.79045 -26.46875,-1.47361 -12.09035,-3.05588 -21.33707,-7.82776 -32.19552,-18.24699 C 10.144819,144.40756 6.1493185,137.07117 2.3564585,120.91745 -0.08507146,108.57655 -0.42390146,98.313368 0.40962854,86.861758 Z M 14.950699,106.19248 c 1.237165,7.69988 1.423825,15.40781 4.984905,23.30607 3.64407,5.93863 2.95754,8.56398 8.20566,13.96414 6.89223,6.20333 11.29127,10.91253 22.41613,14.71218 9.90578,1.56112 17.80082,3.94869 26.86159,4.25915 18.25696,-3.16422 12.19118,-4.48888 21.96394,-12.10919 6.714266,-12.58138 6.506576,-18.43258 11.676006,-28.45768 3.99984,-11.44238 5.5807,-19.32163 9.35339,-30.105682 2.1853,-10.63054 6.41124,-19.68914 9.32963,-26.94668 2.92308,-5.50082 3.78367,-10.80854 7.88376,-17.04848 -8.45387,-3.54482 -23.8044,-11.04296 -34.97214,-13.43341 -12.072036,0.0461 -23.438086,-0.076 -39.525486,1.23475 -16.30543,7.24868 -27.02031,16.79057 -35.68234,25.06465 -4.99795,10.35549 -8.68021,15.47814 -12.835425,27.14568 0.24156,5.83277 -0.0752,10.99303 0.34038,18.414502 z m 8.558975,9.57617 c 8.03121,-2.97708 -5.57623,6.89683 0,0 z m 3.41576,5.85127 c 8.58456,-14.20846 -1.97812,20.11015 3e-5,0 z m 4.3907,-51.529622 c 8.10915,5.05109 17.259,1.05475 23.14118,2.22634 -5.62229,6.55866 -15.63429,-0.26536 -21.78734,8.31356 0.47688,-6.73246 5.04328,-7.85239 -1.35384,-10.5399 z m 0.54871,57.192352 c -0.46443,-9.50464 32.21875,-28.287772 14.57329,-13.27083 -5.91036,0.0257 -19.98526,33.62177 -14.57329,13.27083 z m 16.3047,-73.246712 c 10.90107,-1.23142 29.1566,8.1296 8.05886,4.18497 -2.32954,-1.50582 -11.4779,-2.72166 -8.05886,-4.18497 z M 111.87583,155.79583 c 12.79216,4.45383 14.23075,7.95511 23.25165,8.47957 13.06904,2.03889 22.22472,1.34628 28.68007,-0.068 11.06219,-3.20874 21.95241,-5.92058 30.2367,-15.44566 9.71569,-23.5426 12.88611,-38.13377 18.12261,-57.147802 3.8058,-11.54413 7.09822,-18.07824 9.4101,-26.58347 2.99765,-8.48192 7.30997,-21.5446 11.66978,-23.59745 -8.71632,-7.31014 -25.15463,-10.05118 -36.34766,-10.46535 -7.00982,-0.58599 -20.20565,-0.86978 -30.8629,6.86147 -6.64193,4.51542 -20.65957,18.31525 -15.03676,17.97366 13.383,-0.81302 45.2182,12.79018 15.95027,9.6243 -7.18764,0.10288 -18.86786,-1.17889 -24.49416,6.19005 -3.85524,5.04935 -6.91753,15.88996 -4.94699,17.27942 11.01734,-5.94303 44.02867,3.46295 22.23973,5.86582 -10.41973,0.94294 -23.68746,-0.28913 -26.85799,5.847602 -4.87711,6.48085 -18.12496,31.38191 3.7093,18.84988 11.30129,-6.97766 50.44778,-1.4624 20.01634,2.25321 -25.47341,6.77772 -36.26127,14.72253 -39.36375,22.25482 z m 205.9017,-8.72421 c 11.626,5.33683 6.04568,4.01788 20.10589,7.56354 9.58451,1.45581 19.69637,1.88442 35.4104,1.33557 10.3759,-0.79159 24.59432,-5.20107 36.27471,-17.53928 -3.12308,-1.35589 -15.26485,2.69816 -26.28463,3.08308 -10.38299,0.36267 -15.40768,-1.31259 -18.76465,-6.43781 11.53851,-6.33232 18.4031,-4.29842 25.05385,-4.41731 6.01516,-1.07821 20.49624,-3.28975 21.80467,-7.44475 1.19641,-3.79925 1.4294,-6.4478 3.38916,-11.01926 -4.63795,-1.21612 -9.88805,2.41709 -14.37356,3.94435 -9.84087,5.9223 -44.2015,-4.34916 -19.64944,-7.0584 5.9143,-1.02295 12.5375,-0.96276 18.39054,-2.29778 6.68264,-2.45331 12.50584,-5.74279 18.59478,-7.356222 0.16331,-0.6415 6.11775,-12.00488 0.92385,-13.37145 -5.05891,-1.33104 -19.72008,7.84772 -23.19344,6.23838 -7.06548,-3.27371 -5.61772,-7.20509 -5.18619,-9.09309 0.72822,-3.18612 23.65503,-3.01646 26.30474,-5.23502 3.96122,-3.31666 7.69198,-6.27731 8.62159,-9.56253 8.14189,-16.78208 -1.56575,-5.8288 -17.02623,-1.84069 -9.86811,4.37369 -34.00609,-9.06065 -12.40895,-6.73548 9.45293,-3.3432 19.52501,-1.671 29.50029,-10.40076 7.71768,-4.27821 6.48067,-10.80313 14.16235,-21.46637 -1.79156,-2.76041 -6.14154,-3.49643 -13.08702,-4.67964 -7.57105,-2.84541 -12.80472,-2.55036 -23.10951,-1.75358 -10.71361,0.59487 -13.11085,1.39188 -29.67742,5.09415 -6.82863,2.59504 -12.50495,3.52635 -20.69061,13.75581 -11.00615,10.29657 -17.22243,24.26228 -20.1995,39.68475 -1.96958,13.56437 -4.89438,20.900592 -6.40511,32.526762 0.0161,13.12827 -5.46241,22.08689 -8.48056,34.48303 z m 104.57381,-10.58484 c 11.4785,5.33651 15.38842,8.90456 21.56786,12.1819 8.38404,1.61524 14.62063,3.98386 25.19247,3.76378 7.91545,2.50975 26.98407,-6.78372 34.31612,-15.21498 2.99512,-2.96748 8.22883,-7.73157 12.41552,-11.74126 5.10977,-4.89374 7.65469,-11.15854 6.97955,-12.47467 -8.61161,5.20997 -8.48565,7.46546 -19.53759,10.43855 -6.11075,1.12348 -9.36448,2.91773 -16.47661,0.34727 -10.48128,-4.07821 -12.73618,-12.97562 -1.20378,-7.0908 16.81777,0.90068 34.24648,-12.52131 44.85415,-25.167722 9.16821,-10.8445 -11.59704,-6.36287 -23.47,-2.20609 -15.69864,-0.0487 -18.33835,-8.11354 -3.27965,-8.28851 20.21373,-3.90524 32.33001,-15.06204 30.94294,-26.04107 -10.47524,0.54477 -12.9838,3.00042 -17.12699,2.8066 -8.09989,-0.37892 -8.17962,-5.22495 1.63221,-8.05787 3.15942,-0.9122 4.64909,-1.59744 13.51586,-4.94111 -0.50548,-5.69392 -2.38525,-9.26434 -7.42689,-11.74425 -6.40715,-2.7595 -13.98493,-0.44245 -18.95425,1.30503 -18.254,7.85775 -10.72715,-7.1123 -0.71049,-9.4059 4.63087,-0.84929 9.33486,-1.68935 14.68269,-3.61614 -11.35792,-8.40265 -21.80531,-14.7058704 -38.36136,-8.99156 -7.80777,1.57321 -14.0975,4.49429 -19.59073,7.66706 -13.93169,9.99087 -15.77732,23.26996 -23.11107,37.82818 -5.51912,18.14894 -2.77808,27.45835 -9.877,41.82108 -1.74424,12.993812 -4.23141,25.831232 -6.97296,36.822462 z"
     id="path4623"
     inkscape:connector-curvature="0"
     sodipodi:nodetypes="ccccccccccccsccccccccccccccccccccccccccccccccccccsccccccccccccccccccccccccccccccccccccccccccccscscccccccccccsccscccccssssccccccccccccccccscccccccsssccccccccccc" />
</svg>
